\relax 
\providecommand\hyper@newdestlabel[2]{}
\providecommand\HyperFirstAtBeginDocument{\AtBeginDocument}
\HyperFirstAtBeginDocument{\ifx\hyper@anchor\@undefined
\global\let\oldcontentsline\contentsline
\gdef\contentsline#1#2#3#4{\oldcontentsline{#1}{#2}{#3}}
\global\let\oldnewlabel\newlabel
\gdef\newlabel#1#2{\newlabelxx{#1}#2}
\gdef\newlabelxx#1#2#3#4#5#6{\oldnewlabel{#1}{{#2}{#3}}}
\AtEndDocument{\ifx\hyper@anchor\@undefined
\let\contentsline\oldcontentsline
\let\newlabel\oldnewlabel
\fi}
\fi}
\global\let\hyper@last\relax 
\gdef\HyperFirstAtBeginDocument#1{#1}
\providecommand\HyField@AuxAddToFields[1]{}
\providecommand\HyField@AuxAddToCoFields[2]{}
\@writefile{toc}{\contentsline {section}{\numberline {1}Events Considered}{1}{section.1}}
\@writefile{lof}{\contentsline {figure}{\numberline {1}{\ignorespaces Events Chosen}}{1}{figure.1}}
\@writefile{toc}{\contentsline {section}{\numberline {2}Evalution of Technique}{1}{section.2}}
\@writefile{toc}{\contentsline {section}{\numberline {3}Size Overheads WRT. Amount Of Artifacts Generated}{1}{section.3}}
\@writefile{toc}{\contentsline {subsection}{\numberline {3.1}Tamper Vote}{2}{subsection.3.1}}
\@writefile{toc}{\contentsline {subsubsection}{\numberline {3.1.1}DOM Changes}{2}{subsubsection.3.1.1}}
\@writefile{toc}{\contentsline {subsubsection}{\numberline {3.1.2}Recreation of Browsing Activiy}{2}{subsubsection.3.1.2}}
\@writefile{toc}{\contentsline {subsubsection}{\numberline {3.1.3}Metamask Wallet - Recreation of Events Through Evidence}{2}{subsubsection.3.1.3}}
\@writefile{toc}{\contentsline {subsubsection}{\numberline {3.1.4}Local Wallet - Recreation of Events Through Evidence}{3}{subsubsection.3.1.4}}
\@writefile{toc}{\contentsline {subsubsection}{\numberline {3.1.5}Overall Performance Evaluation}{3}{subsubsection.3.1.5}}
\@writefile{toc}{\contentsline {subsection}{\numberline {3.2}Forge Vote}{4}{subsection.3.2}}
\@writefile{toc}{\contentsline {subsubsection}{\numberline {3.2.1}DOM Changes}{4}{subsubsection.3.2.1}}
\@writefile{toc}{\contentsline {subsubsection}{\numberline {3.2.2}Recreation of Browsing Activity}{4}{subsubsection.3.2.2}}
\@writefile{toc}{\contentsline {subsubsection}{\numberline {3.2.3}Metamask Wallet - Recreation of Events Through Evidence}{4}{subsubsection.3.2.3}}
\@writefile{toc}{\contentsline {subsubsection}{\numberline {3.2.4}Local Wallet - Recreation of Events Through Evidence}{5}{subsubsection.3.2.4}}
\@writefile{toc}{\contentsline {subsubsection}{\numberline {3.2.5}Overall Performance Evaluation}{5}{subsubsection.3.2.5}}
\@writefile{toc}{\contentsline {subsection}{\numberline {3.3}Tamper Buy -- Funds Redirected to Malicious Smart Contract}{6}{subsection.3.3}}
\@writefile{toc}{\contentsline {subsubsection}{\numberline {3.3.1}DOM Changes}{6}{subsubsection.3.3.1}}
\@writefile{toc}{\contentsline {subsubsection}{\numberline {3.3.2}Recreation of Browsing Activity}{6}{subsubsection.3.3.2}}
\@writefile{toc}{\contentsline {subsubsection}{\numberline {3.3.3}Metamask Wallet - Recreation of Events Through Evidence}{6}{subsubsection.3.3.3}}
\@writefile{toc}{\contentsline {subsubsection}{\numberline {3.3.4}Local Wallet - Recreation of Events Through Evidence}{6}{subsubsection.3.3.4}}
\@writefile{toc}{\contentsline {subsubsection}{\numberline {3.3.5}Overall Performance Evaluation}{6}{subsubsection.3.3.5}}
\@writefile{toc}{\contentsline {subsection}{\numberline {3.4}Tamper Buy -- Funds Redirected to Personal Address Owned by Attacker}{6}{subsection.3.4}}
\@writefile{toc}{\contentsline {subsubsection}{\numberline {3.4.1}DOM Changes}{6}{subsubsection.3.4.1}}
\@writefile{toc}{\contentsline {subsubsection}{\numberline {3.4.2}Recreation of Browsing Activity}{6}{subsubsection.3.4.2}}
\@writefile{toc}{\contentsline {subsubsection}{\numberline {3.4.3}Metamask Wallet - Recreation of Events Through Evidence}{6}{subsubsection.3.4.3}}
\@writefile{toc}{\contentsline {subsubsection}{\numberline {3.4.4}Local Wallet - Recreation of Events Through Evidence}{7}{subsubsection.3.4.4}}
\@writefile{toc}{\contentsline {subsubsection}{\numberline {3.4.5}Overall Performance Evaluation}{7}{subsubsection.3.4.5}}
\@writefile{toc}{\contentsline {subsection}{\numberline {3.5}Forge Buy}{7}{subsection.3.5}}
\@writefile{toc}{\contentsline {section}{\numberline {4}Evaluation Of Design Based on Performance}{7}{section.4}}
\@writefile{toc}{\contentsline {subsection}{\numberline {4.1}Network Requests}{7}{subsection.4.1}}
\@writefile{toc}{\contentsline {subsubsection}{\numberline {4.1.1}HTTP Requests}{7}{subsubsection.4.1.1}}
\@writefile{toc}{\contentsline {subsection}{\numberline {4.2}DOM Breakpoints}{7}{subsection.4.2}}
\@writefile{toc}{\contentsline {subsubsection}{\numberline {4.2.1}Sub-tree Modification}{7}{subsubsection.4.2.1}}
\@writefile{toc}{\contentsline {subsubsection}{\numberline {4.2.2}Attributes Modification}{7}{subsubsection.4.2.2}}
\@writefile{toc}{\contentsline {subsection}{\numberline {4.3}EventListener Breakpoints}{7}{subsection.4.3}}
\@writefile{toc}{\contentsline {subsubsection}{\numberline {4.3.1}Mouse Events}{7}{subsubsection.4.3.1}}
\@writefile{toc}{\contentsline {section}{\numberline {5}Time Overheads}{7}{section.5}}
\@writefile{toc}{\contentsline {subsection}{\numberline {5.1}Precautions To Be Taken}{8}{subsection.5.1}}
\@writefile{toc}{\contentsline {subsection}{\numberline {5.2}Statistical Analysis}{8}{subsection.5.2}}
\@writefile{toc}{\contentsline {subsubsection}{\numberline {5.2.1}Total Time Taken per DOM Size}{8}{subsubsection.5.2.1}}
\@writefile{toc}{\contentsline {subsubsection}{\numberline {5.2.2}Mean, Mode and Median Timings per Technique Sub Process}{8}{subsubsection.5.2.2}}
\@writefile{toc}{\contentsline {subsubsection}{\numberline {5.2.3}Max and Min Timings per Technique Sub Process}{8}{subsubsection.5.2.3}}
\@writefile{toc}{\contentsline {section}{\numberline {6}Performance Of DApp When IR Tool is Used}{8}{section.6}}
\@writefile{lof}{\contentsline {figure}{\numberline {2}{\ignorespaces Total Time Taken to Collect Evidence per Dom Size}}{9}{figure.2}}
\@writefile{toc}{\contentsline {section}{\numberline {7}Limitation Of Thecnique}{9}{section.7}}
\@writefile{lof}{\contentsline {figure}{\numberline {3}{\ignorespaces Mean Timings per Technique Sub Process}}{10}{figure.3}}
\@writefile{lof}{\contentsline {figure}{\numberline {4}{\ignorespaces Mode Timings per Technique Sub Process}}{10}{figure.4}}
\@writefile{lof}{\contentsline {figure}{\numberline {5}{\ignorespaces Median Timings per Technique Sub Process}}{11}{figure.5}}
\@writefile{lof}{\contentsline {figure}{\numberline {6}{\ignorespaces Max Timings per Technique Sub Process}}{11}{figure.6}}
\@writefile{lof}{\contentsline {figure}{\numberline {7}{\ignorespaces Min Timings per Technique Sub Process}}{12}{figure.7}}
