\relax 
\@writefile{toc}{\contentsline {section}{\numberline {1}Set Up}{1}}
\@writefile{toc}{\contentsline {section}{\numberline {2}Transactions and Migrations Overview}{2}}
\@writefile{toc}{\contentsline {subsection}{\numberline {2.1}Migrations.sol and it's workings}{3}}
