\relax 
\@writefile{toc}{\contentsline {section}{\numberline {1}What are extensions?}{1}}
\@writefile{toc}{\contentsline {section}{\numberline {2}Architecture}{1}}
\@writefile{toc}{\contentsline {subsection}{\numberline {2.1}Manifest}{1}}
\@writefile{toc}{\contentsline {subsection}{\numberline {2.2}Background Script}{1}}
\@writefile{toc}{\contentsline {subsection}{\numberline {2.3}UI Elements}{2}}
\@writefile{toc}{\contentsline {subsection}{\numberline {2.4}Content Scripts}{2}}
\@writefile{toc}{\contentsline {subsection}{\numberline {2.5}Options Page}{2}}
\@writefile{toc}{\contentsline {section}{\numberline {3}Chrome APIs}{2}}
