\relax 
\@writefile{toc}{\contentsline {section}{\numberline {1}Setup}{1}}
\@writefile{toc}{\contentsline {section}{\numberline {2}Accessing Dapp}{2}}
\@writefile{toc}{\contentsline {section}{\numberline {3}Performing Transaction}{2}}
