\relax 
\@writefile{toc}{\contentsline {section}{\numberline {1}Introduction}{1}}
\@writefile{toc}{\contentsline {section}{\numberline {2}Meeting 0}{1}}
\@writefile{toc}{\contentsline {section}{\numberline {3}Meeting 1}{1}}
\@writefile{toc}{\contentsline {section}{\numberline {4}Meeting 2}{2}}
\@writefile{toc}{\contentsline {section}{\numberline {5}Meeting 3}{2}}
