\relax 
\@writefile{toc}{\contentsline {section}{\numberline {1}Introduction}{1}}
\@writefile{lof}{\contentsline {figure}{\numberline {1}{\ignorespaces Malware Infrastructure}}{1}}
\@writefile{toc}{\contentsline {section}{\numberline {2}Infrastructure Explained}{1}}
\@writefile{toc}{\contentsline {subsection}{\numberline {2.1}Further Note}{1}}
\@writefile{toc}{\contentsline {section}{\numberline {3}Types of Attacks}{2}}
\@writefile{toc}{\contentsline {section}{\numberline {4}Attack 1 - Overview}{2}}
\@writefile{toc}{\contentsline {subsection}{\numberline {4.1}Vote event}{2}}
\@writefile{toc}{\contentsline {subsection}{\numberline {4.2}Lookup event}{3}}
\@writefile{toc}{\contentsline {section}{\numberline {5}Attack 2 - Overview}{3}}
\@writefile{toc}{\contentsline {section}{\numberline {6}Forging Note}{4}}
\@writefile{toc}{\contentsline {section}{\numberline {7}Attack 3 and 4 - Overview}{5}}
\@writefile{toc}{\contentsline {subsection}{\numberline {7.1}Infrastructure Overview}{5}}
\@writefile{toc}{\contentsline {subsection}{\numberline {7.2}On load behaviour}{5}}
\@writefile{toc}{\contentsline {subsection}{\numberline {7.3}On click behaviour}{5}}
\@writefile{toc}{\contentsline {subsubsection}{\numberline {7.3.1}Tampering of transaction}{5}}
\@writefile{toc}{\contentsline {subsubsection}{\numberline {7.3.2}Forging of transaction}{6}}
\@writefile{lof}{\contentsline {figure}{\numberline {2}{\ignorespaces Wallet Attack Infrastructure}}{7}}
