\relax 
\@writefile{toc}{\contentsline {section}{\numberline {1}Properties}{1}}
\@writefile{toc}{\contentsline {section}{\numberline {2}How Signatures Work}{1}}
\@writefile{toc}{\contentsline {section}{\numberline {3}Key Files}{2}}
