\relax 
\providecommand \oddpage@label [2]{}
\AC@reset@newl@bel
\newacro{DApps}[\AC@hyperlink{DApps}{DApps}]{Decentralized Applications}
\newacro{DApp}[\AC@hyperlink{DApp}{DApp}]{Decentralized Application}
\newacro{GUI}[\AC@hyperlink{GUI}{GUI}]{Graphical User Interface}
\newacro{MITM}[\AC@hyperlink{MITM}{MITM}]{Man-In-The-Middle}
\newacro{IR}[\AC@hyperlink{IR}{IR}]{Incident Response}
\newacro{DOM}[\AC@hyperlink{DOM}{DOM}]{Document Object Model}
\newacro{POC}[\AC@hyperlink{POC}{POC}]{Proof-of-Concept}
\newacro{TCB}[\AC@hyperlink{TCB}{TCB}]{Trusted Computing Base}
\newacro{JS}[\AC@hyperlink{JS}{JS}]{JavaScript}
\newacro{EVM}[\AC@hyperlink{EVM}{EVM}]{Ethereum Virtual Machine}
\newacro{Geth}[\AC@hyperlink{Geth}{Geth}]{Go-Ethereum}
\newacro{BaaS}[\AC@hyperlink{BaaS}{BaaS}]{Blockchain-as-a-Service}
\newacro{API}[\AC@hyperlink{API}{API}]{Application Program Interface}
\newacro{TX}[\AC@hyperlink{TX}{TX}]{transaction}
\newacro{IIFE}[\AC@hyperlink{IIFE}{IIFE}]{Immediately Invoked Function Execution}
\citation{EthereumWeb}
\citation{EvotingDApp}
\@writefile{toc}{\contentsline {section}{\numberline {1}Introduction}{1}}
\newlabel{s:intro}{{1}{1}{Introduction}{}{}}
\AC@undonewlabel{acro:DApps}
\newlabel{acro:DApps}{{1}{1}{Introduction}{}{}}
\acronymused{DApps}
\acronymused{DApp}
\acronymused{DApps}
\citation{SecurityExtensions}
\AC@undonewlabel{acro:GUI}
\newlabel{acro:GUI}{{1}{2}{Introduction}{}{}}
\acronymused{GUI}
\acronymused{DApp}
\acronymused{DApp}
\AC@undonewlabel{acro:MITM}
\newlabel{acro:MITM}{{1}{2}{Introduction}{}{}}
\acronymused{MITM}
\acronymused{DApps}
\AC@undonewlabel{acro:IR}
\newlabel{acro:IR}{{1}{2}{Introduction}{}{}}
\acronymused{IR}
\acronymused{DApp}
\acronymused{IR}
\acronymused{DApp}
\acronymused{DOM}
\@writefile{toc}{\contentsline {subsection}{\numberline {1.1}Aim}{2}}
\acronymused{DApp}
\acronymused{DApp}
\acronymused{DOM}
\acronymused{DApp}
\acronymused{DOM}
\citation{ExtensionAnalysis}
\@writefile{lof}{\contentsline {figure}{\numberline {1}{\ignorespaces Proposed Investigation Technique - DAppInvestigator}}{3}}
\providecommand*\caption@xref[2]{\@setref\relax\@undefined{#1}}
\newlabel{fig:techniqueOverview}{{1}{3}{Proposed Investigation Technique - DAppInvestigator}{}{}}
\@writefile{toc}{\contentsline {subsection}{\numberline {1.2}Objectives}{3}}
\acronymused{DApp}
\acronymused{DApp}
\acronymused{DApp}
\AC@undonewlabel{acro:POC}
\newlabel{acro:POC}{{2}{3}{Objectives}{}{}}
\acronymused{POC}
\citation{EthereumWhitePaper}
\acronymused{DApp}
\acronymused{DOM}
\acronymused{DOM}
\acronymused{DOM}
\AC@undonewlabel{acro:TCB}
\newlabel{acro:TCB}{{4}{4}{Objectives}{}{}}
\acronymused{TCB}
\@writefile{toc}{\contentsline {subsection}{\numberline {1.3}Achievements}{4}}
\acronymused{DApp}
\acronymused{POC}
\acronymused{DApp}
\acronymused{DOM}
\acronymused{DOM}
\acronymused{DOM}
\acronymused{POC}
\acronymused{DApp}
\acronymused{POC}
\acronymused{DApp}
\citation{EthereumWhitePaper}
\citation{EthereumWhitePaper}
\citation{EthereumWhitePaper}
\@writefile{toc}{\contentsline {section}{\numberline {2}Literature Review}{5}}
\@writefile{toc}{\contentsline {subsection}{\numberline {2.1}Background}{5}}
\@writefile{toc}{\contentsline {subsubsection}{\numberline {2.1.1}Blockchain Technologies}{5}}
\newlabel{blockchainTech}{{2.1.1}{5}{Blockchain Technologies}{}{}}
\@writefile{toc}{\contentsline {subsubsection}{\numberline {2.1.2}Ethereum Network}{5}}
\citation{EvotingDApp}
\citation{EvotingDApp}
\citation{web3}
\citation{EvotingDApp}
\citation{metamask}
\@writefile{toc}{\contentsline {subsubsection}{\numberline {2.1.3}DApps, DApp Browsers, and Wallets}{6}}
\newlabel{DApps}{{2.1.3}{6}{DApps, DApp Browsers, and Wallets}{}{}}
\@writefile{lof}{\contentsline {figure}{\numberline {2}{\ignorespaces DApp Ecosystem using Metamask DApp Browser}}{6}}
\newlabel{fig:infuraNode}{{2}{6}{DApp Ecosystem using Metamask DApp Browser}{}{}}
\citation{HDWallets}
\citation{keyStore}
\citation{Signatures}
\citation{Signatures2}
\AC@undonewlabel{acro:Geth}
\newlabel{acro:Geth}{{2.1.3}{7}{DApps, DApp Browsers, and Wallets}{}{}}
\acronymused{Geth}
\AC@undonewlabel{acro:BaaS}
\newlabel{acro:BaaS}{{2.1.3}{7}{DApps, DApp Browsers, and Wallets}{}{}}
\acronymused{BaaS}
\@writefile{toc}{\contentsline {subsubsection}{\numberline {2.1.4}E-Voting DApp}{7}}
\newlabel{evotingDAPP}{{2.1.4}{7}{E-Voting DApp}{}{}}
\citation{MDNReadyState}
\citation{Liu12chromeextensions:}
\citation{DevTools}
\@writefile{lot}{\contentsline {table}{\numberline {1}{\ignorespaces E-Voting DApp Functionality\relax }}{8}}
\newlabel{t:evotingDApp}{{1}{8}{E-Voting DApp Functionality\relax }{}{}}
\@writefile{toc}{\contentsline {subsubsection}{\numberline {2.1.5}Chrome Devtools Protocol}{8}}
\newlabel{Devtools}{{2.1.5}{8}{Chrome Devtools Protocol}{}{}}
\citation{BlockchainTarget}
\citation{Razy}
\citation{Razy2}
\@writefile{toc}{\contentsline {subsubsection}{\numberline {2.1.6}Attacks Targeting Blockchain Infrastructure}{9}}
\newlabel{attacks}{{2.1.6}{9}{Attacks Targeting Blockchain Infrastructure}{}{}}
\citation{CopyPaste}
\citation{EOS2}
\citation{EOS}
\citation{CryptoHeist}
\citation{Garcia_forensicphysical}
\@writefile{toc}{\contentsline {subsection}{\numberline {2.2}Related Work}{10}}
\citation{1286727}
\citation{dappguard}
\citation{Neasbitt:2015:WTL:2810103.2813656}
\acronymused{POC}
\citation{Li2018JSgraphER}
\citation{Cova:2010:DAD:1772690.1772720}
\citation{Agten:2012:JCC:2420950.2420952}
\@writefile{toc}{\contentsline {section}{\numberline {3}Threat Analysis}{13}}
\@writefile{lof}{\contentsline {figure}{\numberline {3}{\ignorespaces Threat Analysis - DApp Architecture}}{13}}
\newlabel{fig:archi}{{3}{13}{Threat Analysis - DApp Architecture}{}{}}
\@writefile{toc}{\contentsline {subsection}{\numberline {3.1}Vulnerabilities in the DApp's Application Functionality}{13}}
\AC@undonewlabel{acro:TX}
\newlabel{acro:TX}{{3.1}{13}{Vulnerabilities in the DApp's Application Functionality}{}{}}
\acronymused{TX}
\newlabel{fig:tamperApplAttack}{{4a}{14}{Tamper Application TX\relax }{}{}}
\newlabel{sub@fig:tamperApplAttack}{{a}{14}{Tamper Application TX\relax }{}{}}
\newlabel{fig:forgeApplAttack}{{4b}{14}{Forge Application TX\relax }{}{}}
\newlabel{sub@fig:forgeApplAttack}{{b}{14}{Forge Application TX\relax }{}{}}
\@writefile{lof}{\contentsline {figure}{\numberline {4}{\ignorespaces DApp Exploitation - Application Functionality\relax }}{14}}
\newlabel{fig:applicationAttack}{{4}{14}{DApp Exploitation - Application Functionality\relax }{}{}}
\@writefile{toc}{\contentsline {subsection}{\numberline {3.2}Vulnerabilities in the DApp's Cryptocurrency Functionality}{14}}
\@writefile{toc}{\contentsline {subsection}{\numberline {3.3}Implications of DApp Browsers on Identified Vulnerabilities}{14}}
\citation{Razy}
\citation{Razy2}
\citation{MetamaskProvider}
\newlabel{fig:tamperCryptoTransferAttack}{{5a}{15}{Tamper Crypto Transfer TX\relax }{}{}}
\newlabel{sub@fig:tamperCryptoTransferAttack}{{a}{15}{Tamper Crypto Transfer TX\relax }{}{}}
\newlabel{fig:forgeCryptoTransferAttack}{{5b}{15}{Forge Crypto Transfer TX\relax }{}{}}
\newlabel{sub@fig:forgeCryptoTransferAttack}{{b}{15}{Forge Crypto Transfer TX\relax }{}{}}
\@writefile{lof}{\contentsline {figure}{\numberline {5}{\ignorespaces DApp Exploitation - Cryptocurrency Functionality\relax }}{15}}
\newlabel{fig:cryptoTransferAttack}{{5}{15}{DApp Exploitation - Cryptocurrency Functionality\relax }{}{}}
\@writefile{toc}{\contentsline {subsection}{\numberline {3.4}Proof-of-Concept Malware}{16}}
\AC@undonewlabel{acro:IIFE}
\newlabel{acro:IIFE}{{3.4}{16}{Proof-of-Concept Malware}{}{}}
\acronymused{IIFE}
\@writefile{toc}{\contentsline {subsubsection}{\numberline {3.4.1}Tamper Application Functionality of E-Voting DApp}{16}}
\newlabel{lst:tamperVote}{{1}{17}{DOM Changes Outline - Tamper Vote Attack}{}{}}
\@writefile{lol}{\contentsline {lstlisting}{\numberline {1}DOM Changes Outline - Tamper Vote Attack}{17}}
\@writefile{toc}{\contentsline {subsubsection}{\numberline {3.4.2}Forge Application Functionality of E-Voting DApp}{17}}
\newlabel{lst:forgeVote}{{2}{17}{DOM Changes Outline - Forge Vote Attack}{}{}}
\@writefile{lol}{\contentsline {lstlisting}{\numberline {2}DOM Changes Outline - Forge Vote Attack}{17}}
\newlabel{fig:beforeVoteAttack}{{6a}{18}{DApp: Before User Submits Vote\relax }{}{}}
\newlabel{sub@fig:beforeVoteAttack}{{a}{18}{DApp: Before User Submits Vote\relax }{}{}}
\newlabel{fig:afterVoteAttack}{{6b}{18}{DApp: After User Submits Vote\relax }{}{}}
\newlabel{sub@fig:afterVoteAttack}{{b}{18}{DApp: After User Submits Vote\relax }{}{}}
\@writefile{lof}{\contentsline {figure}{\numberline {6}{\ignorespaces Attacking Vote Functionality of E-Voting DApp\relax }}{18}}
\newlabel{fig:voteAttack}{{6}{18}{Attacking Vote Functionality of E-Voting DApp\relax }{}{}}
\@writefile{toc}{\contentsline {subsubsection}{\numberline {3.4.3}Tamper Cryptocurrency Functionality of E-Voting DApp:\\Using Malicious Contract Account}{18}}
\newlabel{lst:tamperBuy}{{3}{18}{DOM Changes Outline -Tamper Buy Attack: Using Malicious Contract Account}{}{}}
\@writefile{lol}{\contentsline {lstlisting}{\numberline {3}DOM Changes Outline -Tamper Buy Attack: Using Malicious Contract Account}{18}}
\@writefile{toc}{\contentsline {subsubsection}{\numberline {3.4.4}Tamper Cryptocurrency Functionality of E-Voting DApp:\\Using Externally Owned Account}{19}}
\@writefile{toc}{\contentsline {subsubsection}{\numberline {3.4.5}Forge Cryptocurrency Functionality of E-Voting DApp:\\Contract Account and External Account}{19}}
\@writefile{toc}{\contentsline {section}{\numberline {4}DAppInvestigator}{19}}
\@writefile{toc}{\contentsline {subsection}{\numberline {4.1}Proposed Technique}{20}}
\newlabel{lst:captureEvidence}{{4}{20}{Algorithm to Capture Evidence - captureEvidence(event)}{}{}}
\@writefile{lol}{\contentsline {lstlisting}{\numberline {4}Algorithm to Capture Evidence - captureEvidence(event)}{20}}
\citation{tcb2}
\citation{TCB}
\newlabel{lst:compareEvidence}{{5}{21}{Algorithm to Extract DOM Mutations - compareEvidence(folderName)}{}{}}
\@writefile{lol}{\contentsline {lstlisting}{\numberline {5}Algorithm to Extract DOM Mutations - compareEvidence(folderName)}{21}}
\newlabel{lst:analyzeEvidence}{{6}{21}{Evidence Analysis Algorithm - analyzeEvidence(folderName,timestamp.file)}{}{}}
\@writefile{lol}{\contentsline {lstlisting}{\numberline {6}Evidence Analysis Algorithm - analyzeEvidence(folderName,timestamp.file)}{21}}
\citation{tcb1}
\citation{MDNDomEvents}
\@writefile{toc}{\contentsline {subsection}{\numberline {4.2}Implementation}{22}}
\acronymused{TCB}
\@writefile{toc}{\contentsline {subsubsection}{\numberline {4.2.1}DAppInvestigator: Chrome Extension}{22}}
\newlabel{lst:evidenceAcquiFullTCB}{{7}{23}{Evidence Acquisition Algorithm - Full Browser Stack TCB}{}{}}
\@writefile{lol}{\contentsline {lstlisting}{\numberline {7}Evidence Acquisition Algorithm - Full Browser Stack TCB}{23}}
\citation{MutationObserver}
\@writefile{lof}{\contentsline {figure}{\numberline {7}{\ignorespaces Chrome Extension: Designed Trigger Points}}{24}}
\newlabel{fig:designChromeExtension}{{7}{24}{Chrome Extension: Designed Trigger Points}{}{}}
\@writefile{toc}{\contentsline {subsubsection}{\numberline {4.2.2}DAppInvestigator: DevTools Protocol}{24}}
\citation{JSONRpc}
\newlabel{lst:evidenceAcquiDevToolsTCB}{{8}{25}{Evidence Acquisition Algorithm - DevTools Protocol TCB}{}{}}
\@writefile{lol}{\contentsline {lstlisting}{\numberline {8}Evidence Acquisition Algorithm - DevTools Protocol TCB}{25}}
\citation{ChromeExtAPI}
\citation{ChromeRemoteInterface}
\citation{DevTools}
\@writefile{lof}{\contentsline {figure}{\numberline {8}{\ignorespaces DevTools Protocol Application: Designed Trigger Points}}{26}}
\newlabel{fig:designDevToolsApplication}{{8}{26}{DevTools Protocol Application: Designed Trigger Points}{}{}}
\@writefile{toc}{\contentsline {subsubsection}{\numberline {4.2.3}Implementation Details}{26}}
\@writefile{toc}{\contentsline {section}{\numberline {5}Evaluation}{27}}
\@writefile{toc}{\contentsline {subsection}{\numberline {5.1}Effectiveness}{27}}
\@writefile{toc}{\contentsline {subsubsection}{\numberline {5.1.1}Tamper Application Functionality of E-Voting DApp}{28}}
\@writefile{lot}{\contentsline {table}{\numberline {2}{\ignorespaces Tamper Vote Attack\relax }}{28}}
\newlabel{t:tamperVote}{{2}{28}{Tamper Vote Attack\relax }{}{}}
\@writefile{toc}{\contentsline {subsubsection}{\numberline {5.1.2}Forge Application Functionality of E-Voting DApp }{28}}
\@writefile{lot}{\contentsline {table}{\numberline {3}{\ignorespaces Forge Vote Attack\relax }}{29}}
\newlabel{t:forgeVote}{{3}{29}{Forge Vote Attack\relax }{}{}}
\@writefile{toc}{\contentsline {subsubsection}{\numberline {5.1.3}Tamper Cryptocurrency Functionality of E-Voting DApp:\\Using Malicious Contract Account}{29}}
\@writefile{toc}{\contentsline {subsubsection}{\numberline {5.1.4}Tamper Cryptocurrency Functionality of E-Voting DApp:\\Using Externally Owned Account}{29}}
\@writefile{lot}{\contentsline {table}{\numberline {4}{\ignorespaces Tamper Buy Attack - Using Malicious Smart Contract\relax }}{30}}
\newlabel{t:tamperBuySC}{{4}{30}{Tamper Buy Attack - Using Malicious Smart Contract\relax }{}{}}
\@writefile{lot}{\contentsline {table}{\numberline {5}{\ignorespaces Tamper Buy Attack - Using Externally Owned Account\relax }}{30}}
\newlabel{t:tamperBuyEOA}{{5}{30}{Tamper Buy Attack - Using Externally Owned Account\relax }{}{}}
\@writefile{toc}{\contentsline {subsubsection}{\numberline {5.1.5}Forge Cryptocurrency Functionality of E-Voting DApp:\\Contract Account and External Account}{30}}
\@writefile{toc}{\contentsline {subsubsection}{\numberline {5.1.6}Trigger Points Evaluation: TCB using Full Browser Stack}{30}}
\citation{input}
\citation{MUTObserver}
\citation{attribute_vs_property}
\@writefile{toc}{\contentsline {subsubsection}{\numberline {5.1.7}Trigger Points: TCB using DevTools Protocol Code Base}{32}}
\@writefile{toc}{\contentsline {subsection}{\numberline {5.2}Time Overheads}{32}}
\citation{ethInfo}
\citation{DOMSize}
\@writefile{lof}{\contentsline {figure}{\numberline {9}{\ignorespaces Implementation Comparison of Time Overheads}}{33}}
\newlabel{fig:implementationComparison}{{9}{33}{Implementation Comparison of Time Overheads}{}{}}
\@writefile{toc}{\contentsline {subsection}{\numberline {5.3}Comparing Implementations}{34}}
\@writefile{toc}{\contentsline {section}{\numberline {6}Conclusions and Future Work}{35}}
\bibstyle{alpha}
\bibdata{refs}
\bibcite{CopyPaste}{AS18}
\bibcite{Agten:2012:JCC:2420950.2420952}{AVAB{$^{+}$}12}
\bibcite{attribute_vs_property}{Ban}
\bibcite{1286727}{BBPS04}
\bibcite{EOS}{Ber18}
\bibcite{Razy}{Bis19}
\bibcite{ethInfo}{Bit}
\bibcite{TCB}{BK19}
\bibcite{CarbonBlack}{Bla18}
\bibcite{EthereumWhitePaper}{But14}
\bibcite{ChromeRemoteInterface}{ca}
\bibcite{ChromeExtAPI}{Chra}
\bibcite{DevTools}{Chrb}
\bibcite{ExtensionAnalysis}{CIMV16}
\bibcite{Cova:2010:DAD:1772690.1772720}{CKV10}
\bibcite{MUTObserver}{Com}
\bibcite{tcb2}{Cyb17}
\bibcite{DOMSize}{Dev}
\bibcite{JSONRpc}{DG}
\bibcite{MostPopularLanguage}{Dra18}
\bibcite{Solidity}{Etha}
\bibcite{web3}{Ethb}
\bibcite{MetamaskProvider}{Fin}
\bibcite{Garcia_forensicphysical}{Gar}
\bibcite{Signatures}{Hei18}
\bibcite{HDWallets}{Kha19}
\bibcite{ThreatAnalysis}{Kos19}
\bibcite{Li2018JSgraphER}{LVLP18}
\bibcite{Liu12chromeextensions:}{LZI{$^{+}$}12}
\bibcite{MDNReadyState}{MDNa}
\bibcite{MDNDomEvents}{MDNb}
\bibcite{MDNDom}{MDNc}
\bibcite{MutationObserver}{MDNd}
\bibcite{SecurityExtensions}{Mic19}
\bibcite{Mohanty2018}{Moh18}
\bibcite{EthereumWeb}{Mur17a}
\bibcite{EvotingDApp}{Mur17b}
\bibcite{keyStore}{MyC19}
\bibcite{Neasbitt:2015:WTL:2810103.2813656}{NLP{$^{+}$}15}
\bibcite{BlockchainTarget}{Orc19}
\bibcite{Signatures2}{Poz17}
\bibcite{input}{Pud}
\bibcite{CryptoHeist}{Sha18}
\bibcite{dappguard}{TAJ}
\bibcite{metamask}{Tea}
\bibcite{EOS2}{Tea18}
\bibcite{Razy2}{VB19}
\bibcite{tcb1}{Wal15}
\@writefile{lol}{\contentsline {lstlisting}{\numberline {9}Sample Output}{43}}
