\relax 
\@writefile{toc}{\contentsline {section}{\numberline {1}Introduction}{1}}
\@writefile{toc}{\contentsline {section}{\numberline {2}Ganache}{1}}
\@writefile{toc}{\contentsline {section}{\numberline {3}User Interface}{1}}
\@writefile{toc}{\contentsline {section}{\numberline {4}Web3}{1}}
\@writefile{toc}{\contentsline {subsection}{\numberline {4.1}Calling Contract Functions}{2}}
\@writefile{toc}{\contentsline {subsection}{\numberline {4.2}Promises}{3}}
\@writefile{toc}{\contentsline {subsection}{\numberline {4.3}Basic Setup Of Web3 in A DAPP Using Truffle Framework}{3}}
\@writefile{toc}{\contentsline {section}{\numberline {5}MetaMask}{3}}
\@writefile{toc}{\contentsline {subsection}{\numberline {5.1}HD Wallet Architecture}{4}}
\@writefile{toc}{\contentsline {subsection}{\numberline {5.2}Risks Using Metamask}{6}}
\@writefile{toc}{\contentsline {section}{\numberline {6}Infura}{6}}
