\relax 
\@writefile{toc}{\contentsline {section}{\numberline {1}Introduction to Bitcoin and Existing Concepts}{1}}
\@writefile{toc}{\contentsline {subsection}{\numberline {1.1}History and Backbone of Cryptocurrencies}{1}}
\@writefile{toc}{\contentsline {subsubsection}{\numberline {1.1.1}Proof of Work}{1}}
\@writefile{toc}{\contentsline {subsubsection}{\numberline {1.1.2}Proof of Stake}{1}}
\@writefile{toc}{\contentsline {subsection}{\numberline {1.2}Bitcoin As A State Transition System}{1}}
\@writefile{toc}{\contentsline {subsubsection}{\numberline {1.2.1}How Transitions In Bitcoin Work}{2}}
\@writefile{toc}{\contentsline {subsubsection}{\numberline {1.2.2}Real Life Example}{2}}
\@writefile{toc}{\contentsline {subsection}{\numberline {1.3}Mining}{3}}
\@writefile{toc}{\contentsline {subsubsection}{\numberline {1.3.1}Proof of Work}{3}}
\@writefile{toc}{\contentsline {subsubsection}{\numberline {1.3.2}Attack Case Scenario}{4}}
\@writefile{toc}{\contentsline {subsection}{\numberline {1.4}Merkle Trees and Block Headers}{4}}
\@writefile{toc}{\contentsline {section}{\numberline {2}Ethereum}{5}}
\@writefile{toc}{\contentsline {subsection}{\numberline {2.1}Philosophy}{6}}
\@writefile{toc}{\contentsline {subsection}{\numberline {2.2}Accounts}{6}}
\@writefile{toc}{\contentsline {subsubsection}{\numberline {2.2.1}Externally Owned Accounts}{6}}
\@writefile{toc}{\contentsline {subsubsection}{\numberline {2.2.2}Contract Accounts/Contract Wallet}{6}}
\@writefile{toc}{\contentsline {subsection}{\numberline {2.3}Transaction}{7}}
\@writefile{toc}{\contentsline {subsection}{\numberline {2.4}Messages}{8}}
\@writefile{toc}{\contentsline {subsection}{\numberline {2.5}Ethereum State Transition Function}{9}}
\@writefile{toc}{\contentsline {subsubsection}{\numberline {2.5.1}Example}{10}}
\@writefile{toc}{\contentsline {subsection}{\numberline {2.6}Ethereum Contracts Code}{10}}
\@writefile{toc}{\contentsline {subsection}{\numberline {2.7}Blockchain and mining}{10}}
\@writefile{lof}{\contentsline {figure}{\numberline {1}{\ignorespaces figure}}{12}}
\@writefile{toc}{\contentsline {subsubsection}{\numberline {2.7.1}Merkle Patricia Tree}{12}}
\@writefile{toc}{\contentsline {section}{\numberline {3}Miscellanea}{13}}
\@writefile{toc}{\contentsline {subsection}{\numberline {3.1}Modified GHOST Impelementation}{13}}
\bibstyle{ieeetr}
\bibdata{references}
\@writefile{toc}{\contentsline {section}{\numberline {4}Private vs Public Keys}{14}}
