\relax 
\providecommand\hyper@newdestlabel[2]{}
\providecommand\HyperFirstAtBeginDocument{\AtBeginDocument}
\HyperFirstAtBeginDocument{\ifx\hyper@anchor\@undefined
\global\let\oldcontentsline\contentsline
\gdef\contentsline#1#2#3#4{\oldcontentsline{#1}{#2}{#3}}
\global\let\oldnewlabel\newlabel
\gdef\newlabel#1#2{\newlabelxx{#1}#2}
\gdef\newlabelxx#1#2#3#4#5#6{\oldnewlabel{#1}{{#2}{#3}}}
\AtEndDocument{\ifx\hyper@anchor\@undefined
\let\contentsline\oldcontentsline
\let\newlabel\oldnewlabel
\fi}
\fi}
\global\let\hyper@last\relax 
\gdef\HyperFirstAtBeginDocument#1{#1}
\providecommand\HyField@AuxAddToFields[1]{}
\providecommand\HyField@AuxAddToCoFields[2]{}
\@writefile{toc}{\contentsline {section}{\numberline {1}What is Incident Response}{1}{section.1}}
\@writefile{toc}{\contentsline {section}{\numberline {2}6 steps of Incident Response}{1}{section.2}}
\@writefile{toc}{\contentsline {subsection}{\numberline {2.1}Preparation}{1}{subsection.2.1}}
\@writefile{toc}{\contentsline {subsubsection}{\numberline {2.1.1}Mapping To Tool}{1}{subsubsection.2.1.1}}
\@writefile{toc}{\contentsline {subsection}{\numberline {2.2}Identification}{2}{subsection.2.2}}
\@writefile{toc}{\contentsline {subsubsection}{\numberline {2.2.1}Mapping To Tool}{2}{subsubsection.2.2.1}}
\@writefile{toc}{\contentsline {subsection}{\numberline {2.3}Containment}{2}{subsection.2.3}}
\@writefile{toc}{\contentsline {subsubsection}{\numberline {2.3.1}Mapping To Tool}{2}{subsubsection.2.3.1}}
\@writefile{toc}{\contentsline {subsection}{\numberline {2.4}Eradication}{2}{subsection.2.4}}
\@writefile{toc}{\contentsline {subsubsection}{\numberline {2.4.1}Mapping To Tool}{2}{subsubsection.2.4.1}}
\@writefile{toc}{\contentsline {subsection}{\numberline {2.5}Recovery}{2}{subsection.2.5}}
\@writefile{toc}{\contentsline {subsubsection}{\numberline {2.5.1}Mapping To Tool}{3}{subsubsection.2.5.1}}
\@writefile{toc}{\contentsline {subsection}{\numberline {2.6}Review Lessons Learned}{3}{subsection.2.6}}
\@writefile{toc}{\contentsline {subsubsection}{\numberline {2.6.1}Mapping To Tool}{3}{subsubsection.2.6.1}}
\@writefile{toc}{\contentsline {section}{\numberline {3}IR Tool -- Chrome Extension}{3}{section.3}}
\@writefile{toc}{\contentsline {subsection}{\numberline {3.1}Evidence Candidates}{3}{subsection.3.1}}
\@writefile{toc}{\contentsline {subsubsection}{\numberline {3.1.1}Trigger}{3}{subsubsection.3.1.1}}
\@writefile{toc}{\contentsline {subsubsection}{\numberline {3.1.2}Timestamp}{4}{subsubsection.3.1.2}}
\@writefile{toc}{\contentsline {subsubsection}{\numberline {3.1.3}DOMState}{4}{subsubsection.3.1.3}}
\@writefile{toc}{\contentsline {subsubsection}{\numberline {3.1.4}DOM Capture}{4}{subsubsection.3.1.4}}
\@writefile{lof}{\contentsline {figure}{\numberline {1}{\ignorespaces Sample DOM Tree}}{4}{figure.1}}
\@writefile{toc}{\contentsline {subsubsection}{\numberline {3.1.5}Session Storage}{5}{subsubsection.3.1.5}}
\@writefile{toc}{\contentsline {subsubsection}{\numberline {3.1.6}Local Storage}{5}{subsubsection.3.1.6}}
\@writefile{toc}{\contentsline {subsubsection}{\numberline {3.1.7}Storage Used By Malware Extension}{5}{subsubsection.3.1.7}}
\@writefile{toc}{\contentsline {subsection}{\numberline {3.2}Events To Capture Evidence Candidates}{5}{subsection.3.2}}
\@writefile{lof}{\contentsline {figure}{\numberline {2}{\ignorespaces Isolated Chrome Extension Storages}}{6}{figure.2}}
\@writefile{toc}{\contentsline {subsubsection}{\numberline {3.2.1}Startup Events}{6}{subsubsection.3.2.1}}
\@writefile{toc}{\contentsline {subsubsection}{\numberline {3.2.2}Mouse Events}{7}{subsubsection.3.2.2}}
\@writefile{toc}{\contentsline {subsubsection}{\numberline {3.2.3}User Input Events}{7}{subsubsection.3.2.3}}
\@writefile{toc}{\contentsline {subsubsection}{\numberline {3.2.4}Storage Events}{7}{subsubsection.3.2.4}}
\@writefile{toc}{\contentsline {subsubsection}{\numberline {3.2.5}DOM Tree Changes Events}{8}{subsubsection.3.2.5}}
\@writefile{toc}{\contentsline {subsubsection}{\numberline {3.2.6}HTTP Reqeuests By DApp}{8}{subsubsection.3.2.6}}
\@writefile{toc}{\contentsline {subsection}{\numberline {3.3}Persistence}{8}{subsection.3.3}}
\@writefile{toc}{\contentsline {section}{\numberline {4}IR Tool -- Node Environment}{9}{section.4}}
\@writefile{toc}{\contentsline {subsection}{\numberline {4.1}Evidence Candidates}{9}{subsection.4.1}}
\@writefile{toc}{\contentsline {subsubsection}{\numberline {4.1.1}Trigger}{9}{subsubsection.4.1.1}}
\@writefile{toc}{\contentsline {subsubsection}{\numberline {4.1.2}Timestamp}{9}{subsubsection.4.1.2}}
\@writefile{toc}{\contentsline {subsubsection}{\numberline {4.1.3}DOM Capture}{10}{subsubsection.4.1.3}}
\@writefile{lof}{\contentsline {figure}{\numberline {3}{\ignorespaces Sample DOM Tree}}{10}{figure.3}}
\@writefile{toc}{\contentsline {subsubsection}{\numberline {4.1.4}Additional Info}{10}{subsubsection.4.1.4}}
\@writefile{toc}{\contentsline {subsection}{\numberline {4.2}Events To Capture Evidence Candidates}{11}{subsection.4.2}}
\@writefile{toc}{\contentsline {subsubsection}{\numberline {4.2.1}Side Note: Grabbing the DOM Artifact}{11}{subsubsection.4.2.1}}
\@writefile{toc}{\contentsline {subsubsection}{\numberline {4.2.2}DOM Tree Changes Events}{12}{subsubsection.4.2.2}}
\@writefile{toc}{\contentsline {subsubsection}{\numberline {4.2.3}Div Nodes Attribute Modifications}{12}{subsubsection.4.2.3}}
\@writefile{toc}{\contentsline {subsubsection}{\numberline {4.2.4}Mouse Events}{12}{subsubsection.4.2.4}}
\@writefile{toc}{\contentsline {subsubsection}{\numberline {4.2.5}Network Events}{12}{subsubsection.4.2.5}}
\@writefile{toc}{\contentsline {subsection}{\numberline {4.3}Persistence}{13}{subsection.4.3}}
\@writefile{toc}{\contentsline {section}{\numberline {5}Investigating Evidence}{13}{section.5}}
