\BOOKMARK [1][-]{section.1}{What is Incident Response}{}% 1
\BOOKMARK [1][-]{section.2}{6 steps of Incident Response}{}% 2
\BOOKMARK [2][-]{subsection.2.1}{Preparation}{section.2}% 3
\BOOKMARK [3][-]{subsubsection.2.1.1}{Mapping To Tool}{subsection.2.1}% 4
\BOOKMARK [2][-]{subsection.2.2}{Identification}{section.2}% 5
\BOOKMARK [3][-]{subsubsection.2.2.1}{Mapping To Tool}{subsection.2.2}% 6
\BOOKMARK [2][-]{subsection.2.3}{Containment}{section.2}% 7
\BOOKMARK [3][-]{subsubsection.2.3.1}{Mapping To Tool}{subsection.2.3}% 8
\BOOKMARK [2][-]{subsection.2.4}{Eradication}{section.2}% 9
\BOOKMARK [3][-]{subsubsection.2.4.1}{Mapping To Tool}{subsection.2.4}% 10
\BOOKMARK [2][-]{subsection.2.5}{Recovery}{section.2}% 11
\BOOKMARK [3][-]{subsubsection.2.5.1}{Mapping To Tool}{subsection.2.5}% 12
\BOOKMARK [2][-]{subsection.2.6}{Review Lessons Learned}{section.2}% 13
\BOOKMARK [3][-]{subsubsection.2.6.1}{Mapping To Tool}{subsection.2.6}% 14
\BOOKMARK [1][-]{section.3}{IR Tool \205 Chrome Extension}{}% 15
\BOOKMARK [2][-]{subsection.3.1}{Evidence Candidates}{section.3}% 16
\BOOKMARK [3][-]{subsubsection.3.1.1}{Trigger}{subsection.3.1}% 17
\BOOKMARK [3][-]{subsubsection.3.1.2}{Timestamp}{subsection.3.1}% 18
\BOOKMARK [3][-]{subsubsection.3.1.3}{DOMState}{subsection.3.1}% 19
\BOOKMARK [3][-]{subsubsection.3.1.4}{DOM Capture}{subsection.3.1}% 20
\BOOKMARK [3][-]{subsubsection.3.1.5}{Session Storage}{subsection.3.1}% 21
\BOOKMARK [3][-]{subsubsection.3.1.6}{Local Storage}{subsection.3.1}% 22
\BOOKMARK [3][-]{subsubsection.3.1.7}{Storage Used By Malware Extension}{subsection.3.1}% 23
\BOOKMARK [2][-]{subsection.3.2}{Events To Capture Evidence Candidates}{section.3}% 24
\BOOKMARK [3][-]{subsubsection.3.2.1}{Startup Events}{subsection.3.2}% 25
\BOOKMARK [3][-]{subsubsection.3.2.2}{Mouse Events}{subsection.3.2}% 26
\BOOKMARK [3][-]{subsubsection.3.2.3}{User Input Events}{subsection.3.2}% 27
\BOOKMARK [3][-]{subsubsection.3.2.4}{Storage Events}{subsection.3.2}% 28
\BOOKMARK [3][-]{subsubsection.3.2.5}{DOM Tree Changes Events}{subsection.3.2}% 29
\BOOKMARK [3][-]{subsubsection.3.2.6}{HTTP Reqeuests By DApp}{subsection.3.2}% 30
\BOOKMARK [2][-]{subsection.3.3}{Persistence}{section.3}% 31
\BOOKMARK [1][-]{section.4}{IR Tool \205 Node Environment}{}% 32
\BOOKMARK [2][-]{subsection.4.1}{Evidence Candidates}{section.4}% 33
\BOOKMARK [3][-]{subsubsection.4.1.1}{Trigger}{subsection.4.1}% 34
\BOOKMARK [3][-]{subsubsection.4.1.2}{Timestamp}{subsection.4.1}% 35
\BOOKMARK [3][-]{subsubsection.4.1.3}{DOM Capture}{subsection.4.1}% 36
\BOOKMARK [3][-]{subsubsection.4.1.4}{Additional Info}{subsection.4.1}% 37
\BOOKMARK [2][-]{subsection.4.2}{Events To Capture Evidence Candidates}{section.4}% 38
\BOOKMARK [3][-]{subsubsection.4.2.1}{Side Note: Grabbing the DOM Artifact}{subsection.4.2}% 39
\BOOKMARK [3][-]{subsubsection.4.2.2}{DOM Tree Changes Events}{subsection.4.2}% 40
\BOOKMARK [3][-]{subsubsection.4.2.3}{Div Nodes Attribute Modifications}{subsection.4.2}% 41
\BOOKMARK [3][-]{subsubsection.4.2.4}{Mouse Events}{subsection.4.2}% 42
\BOOKMARK [3][-]{subsubsection.4.2.5}{Network Events}{subsection.4.2}% 43
\BOOKMARK [2][-]{subsection.4.3}{Persistence}{section.4}% 44
\BOOKMARK [1][-]{section.5}{Investigating Evidence}{}% 45
