\relax 
\citation{mohanty18}
\citation{ethereum_webdev}
\citation{ethereum_webdev}
\@writefile{toc}{\contentsline {section}{\numberline {1}Introduction}{1}}
\newlabel{s:intro}{{1}{1}}
\@writefile{toc}{\contentsline {section}{\numberline {2}Aim}{1}}
\newlabel{s:aims}{{2}{1}}
\@writefile{toc}{\contentsline {section}{\numberline {3}Objectives}{1}}
\citation{white_paper}
\citation{white_paper}
\citation{italian}
\citation{survey}
\citation{dappguard}
\citation{nodejs_infection}
\@writefile{toc}{\contentsline {section}{\numberline {4}Background}{2}}
\newlabel{s:bckg}{{4}{2}}
\@writefile{toc}{\contentsline {subsection}{\numberline {4.1}Related Work}{2}}
\newlabel{s:rltwrk}{{4.1}{2}}
\citation{warnings}
\citation{detection_js}
\citation{sePlugin}
\@writefile{toc}{\contentsline {section}{\numberline {5}DApp Architectural Analysis}{3}}
\newlabel{s:daa}{{5}{3}}
\@writefile{lof}{\contentsline {figure}{\numberline {1}{\ignorespaces Architecture Diagram - Plugin DApp Browser\relax }}{3}}
\providecommand*\caption@xref[2]{\@setref\relax\@undefined{#1}}
\newlabel{fig:proxyNodeInf}{{1}{3}}
\@writefile{toc}{\contentsline {section}{\numberline {6}Plan of Work}{3}}
\newlabel{s:plan}{{6}{3}}
\citation{webattack_reconstruction}
\bibcite{nodejs_infection}{1}
\@writefile{lof}{\contentsline {figure}{\numberline {2}{\ignorespaces Plan of Work Timeline\relax }}{4}}
\newlabel{fig:planOfWork}{{2}{4}}
\@writefile{toc}{\contentsline {section}{\numberline {7}Proposed Solution}{4}}
\newlabel{s:prop_sol}{{7}{4}}
\@writefile{lof}{\contentsline {figure}{\numberline {3}{\ignorespaces Proposed Solution - Component Level View\relax }}{4}}
\newlabel{fig:proposedSolution}{{3}{4}}
\bibcite{mohanty18}{2}
\bibcite{ethereum_webdev}{3}
\bibcite{white_paper}{4}
\bibcite{dapp_dev}{5}
\bibcite{dappguard}{6}
\bibcite{italian}{7}
\bibcite{survey}{8}
\bibcite{chrome_vulner}{9}
\bibcite{warnings}{10}
\bibcite{sePlugin}{11}
\bibcite{detection_js}{12}
\bibcite{webattack_reconstruction}{13}
