\relax 
\citation{dom}
\citation{mohanty18}
\citation{ethereum_webdev}
\citation{dapp_dev}
\citation{geth}
\citation{metamask}
\citation{infura}
\citation{ethereum_webdev}
\citation{properties}
\citation{white_paper}
\@writefile{toc}{\contentsline {section}{\numberline {1}Introduction}{1}}
\newlabel{s:intro}{{1}{1}}
\citation{geth}
\citation{metamask}
\citation{infura}
\@writefile{toc}{\contentsline {section}{\numberline {2}Aim and Objectives}{2}}
\newlabel{s:aims}{{2}{2}}
\citation{white_paper}
\citation{dom}
\citation{extensions}
\citation{geth}
\citation{jsonrpc}
\citation{white_paper}
\citation{white_paper}
\citation{white_paper}
\@writefile{toc}{\contentsline {subsection}{\numberline {2.1}A defense for why the problem is non-trivial}{3}}
\@writefile{toc}{\contentsline {section}{\numberline {3}Background}{3}}
\newlabel{s:bckg}{{3}{3}}
\citation{dapp_dev}
\citation{geth}
\citation{infura}
\citation{jsonrpc}
\@writefile{toc}{\contentsline {subsection}{\numberline {3.1}Typical Make-Up of DApp}{4}}
\citation{italian}
\citation{attacks}
\citation{survey}
\citation{ret_block_sec}
\citation{automated_sc}
\citation{ret_block_sec}
\citation{dappguard}
\@writefile{toc}{\contentsline {subsection}{\numberline {3.2}Related Work}{5}}
\newlabel{s:rltwrk}{{3.2}{5}}
\@writefile{toc}{\contentsline {section}{\numberline {4}DApp Architectural Analysis}{5}}
\newlabel{s:daa}{{4}{5}}
\@writefile{toc}{\contentsline {section}{\numberline {5}Plan of Work}{6}}
\newlabel{s:plan}{{5}{6}}
\@writefile{toc}{\contentsline {section}{\numberline {6}Proposed Evaluation}{7}}
\newlabel{s:eval}{{6}{7}}
\@writefile{toc}{\contentsline {section}{\numberline {7}Deliverables}{7}}
\bibcite{mohanty18}{1}
\bibcite{ethereum_webdev}{2}
\bibcite{dom}{3}
\bibcite{white_paper}{4}
\bibcite{properties}{5}
\bibcite{geth}{6}
\bibcite{metamask}{7}
\bibcite{infura}{8}
\bibcite{extensions}{9}
\@writefile{toc}{\contentsline {section}{\numberline {8}References}{8}}
\newlabel{s:ref}{{8}{8}}
\bibcite{jsonrpc}{10}
\bibcite{dapp_dev}{11}
\bibcite{voting_dapp}{12}
\bibcite{ret_block_sec}{13}
\bibcite{attacks}{14}
\bibcite{dappguard}{15}
\bibcite{automated_sc}{16}
\bibcite{italian}{17}
\bibcite{survey}{18}
