\relax 
\citation{mohanty18}
\citation{ethereum_webdev}
\citation{ethereum_webdev}
\@writefile{toc}{\contentsline {section}{\numberline {1}Introduction}{1}}
\newlabel{s:intro}{{1}{1}}
\citation{white_paper}
\@writefile{toc}{\contentsline {section}{\numberline {2}Aim}{2}}
\newlabel{s:aims}{{2}{2}}
\@writefile{toc}{\contentsline {section}{\numberline {3}Objectives}{2}}
\@writefile{toc}{\contentsline {section}{\numberline {4}A defense for why the problem is non-trivial}{2}}
\@writefile{toc}{\contentsline {section}{\numberline {5}Background}{2}}
\newlabel{s:bckg}{{5}{2}}
\citation{white_paper}
\citation{italian}
\citation{survey}
\citation{dappguard}
\citation{warnings}
\@writefile{toc}{\contentsline {subsection}{\numberline {5.1}Related Work}{3}}
\newlabel{s:rltwrk}{{5.1}{3}}
\citation{detection_js}
\citation{sePlugin}
\@writefile{toc}{\contentsline {section}{\numberline {6}DApp Architectural Analysis}{4}}
\newlabel{s:daa}{{6}{4}}
\@writefile{lof}{\contentsline {figure}{\numberline {1}{\ignorespaces Architecture Diagram - Plugin DApp Browser\relax }}{4}}
\citation{chromium}
\@writefile{lof}{\contentsline {figure}{\numberline {2}{\ignorespaces Plan of Work Timeline\relax }}{5}}
\@writefile{toc}{\contentsline {section}{\numberline {7}Plan of Work}{5}}
\newlabel{s:plan}{{7}{5}}
\@writefile{toc}{\contentsline {section}{\numberline {8}Proposed Solution}{5}}
\newlabel{s:prop_sol}{{8}{5}}
\@writefile{lof}{\contentsline {figure}{\numberline {3}{\ignorespaces Proposed Solution - High Level\relax }}{5}}
\bibcite{chromium}{1}
\bibcite{mohanty18}{2}
\bibcite{ethereum_webdev}{3}
\bibcite{white_paper}{4}
\bibcite{dapp_dev}{5}
\bibcite{dappguard}{6}
\bibcite{italian}{7}
\bibcite{survey}{8}
\bibcite{chrome_vulner}{9}
\bibcite{warnings}{10}
\@writefile{toc}{\contentsline {section}{\numberline {9}Proposed Evaluation}{6}}
\newlabel{s:eval}{{9}{6}}
\bibcite{sePlugin}{11}
\bibcite{detection_js}{12}
