\begin{thebibliography}{10}

\bibitem{Razy}
D.~Bisson.
\newblock Razy trojan installs malicious browser extensions to steal
  cryptocurrency.
\newblock
  \url{https://securityintelligence.com/news/razy-trojan-installs-malicious-browser-extensions-to-steal-cryptocurrency/},
  2019.
\newblock Accessed on 2019-03-18.

\bibitem{ExtensionAnalysis}
R.~Chipman, T.~Ivonchyk, D.~Man, and M.~Voss.
\newblock Security analysis of chrome extensions.
\newblock 2016.

\bibitem{tcb2}
F.~Cybersecurity.
\newblock Trusted computing base or “tcb”.
\newblock \url{https://blog.finjan.com/trusted-computing-base/}, 2017.
\newblock Accessed on 2019-05-16.

\bibitem{JSONRpc}
J.~Damick and J.-R. Group.
\newblock Json-rpc over http.
\newblock \url{https://www.jsonrpc.org/historical/json-rpc-over-http.html}.
\newblock Accessed on 2019-04-19.

\bibitem{Signatures}
D.~T. Heide.
\newblock A closer look at ethereum signatures.
\newblock
  \url{https://hackernoon.com/a-closer-look-at-ethereum-signatures-5784c14abecc},
  2018.
\newblock Accessed on 2019-02-03.

\bibitem{HDWallets}
S.~Khatwani.
\newblock What are hd wallets? (deterministic wallet).
\newblock \url{https://coinsutra.com/hd-wallets-deterministic-wallet/}, 2019.
\newblock Accessed on 2019-02-03.

\bibitem{Liu12chromeextensions:}
L.~Liu, X.~Zhang, V.~Inc, G.~Yan, and S.~Chen.
\newblock Chrome extensions: Threat analysis and countermeasures.
\newblock In {\em In 19th Network and Distributed System Security Symposium
  (NDSS ’12}, 2012.

\bibitem{MDNReadyState}
MDN.
\newblock Document.readystate.
\newblock
  \url{https://developer.mozilla.org/en-US/docs/Web/API/Document/readyState}.

\bibitem{EthereumWeb}
M.~Murthy.
\newblock Ethereum for web developers.
\newblock
  \url{https://medium.com/@mvmurthy/ethereum-for-web-developers-890be23d1d0c},
  2017.
\newblock Accessed on 2019-04-27.

\bibitem{EvotingDApp}
M.~Murthy.
\newblock Full stack hello world voting ethereum dapp tutorial.
\newblock
  \url{https://medium.com/@mvmurthy/full-stack-hello-world-voting-ethereum-dapp-tutorial-part-1-40d2d0d807c2;},
  2017.
\newblock Accessed on 2018-11-24.

\bibitem{keyStore}
I.~MyCriptyo.
\newblock How to access your wallet with keystore file.
\newblock
  \url{https://support.mycrypto.com/how-to/accessing-wallet/how-to-access-your-wallet-with-keystore-file},
  2019.
\newblock Accessed on 2019-02-03.

\bibitem{Signatures2}
A.~Pozo.
\newblock Ethereum: Signing and validating.
\newblock
  \url{https://medium.com/@angellopozo/ethereum-signing-and-validating-13a2d7cb0ee3},
  2017.
\newblock Accessed on 2019-02-03.

\end{thebibliography}
