\relax 
\citation{EthereumWeb}
\citation{EvotingDApp}
\@writefile{toc}{\contentsline {section}{\numberline {1}Introduction}{\thepage }}
\newlabel{s:intro}{{1}{\thepage }}
\@writefile{toc}{\contentsline {subsection}{\numberline {1.1}Aim and Objectives}{\thepage }}
\@writefile{lof}{\contentsline {figure}{\numberline {1}{\ignorespaces Proposed Investigation Technique - DAppInvestigator}}{\thepage }}
\newlabel{fig:techniqueOverview}{{1}{\thepage }}
\citation{ExtensionAnalysis}
\citation{EvotingDApp}
\citation{HDWallets}
\citation{keyStore}
\citation{Signatures}
\citation{Signatures2}
\citation{EvotingDApp}
\citation{MDNReadyState}
\citation{Liu12chromeextensions:}
\citation{Razy}
\@writefile{toc}{\contentsline {section}{\numberline {2}Background}{\thepage }}
\@writefile{toc}{\contentsline {subsection}{\numberline {2.1}DApps, DApp Browsers, and Wallets}{\thepage }}
\@writefile{toc}{\contentsline {subsection}{\numberline {2.2}E-Voting DApp Running Example}{\thepage }}
\@writefile{lot}{\contentsline {table}{\numberline {1}{\ignorespaces E-Voting DApp Functionality}}{\thepage }}
\newlabel{t:evotingDApp}{{1}{\thepage }}
\@writefile{toc}{\contentsline {section}{\numberline {3}Threat Analysis}{\thepage }}
\@writefile{lof}{\contentsline {figure}{\numberline {2}{\ignorespaces Threat Analysis - DApp Architecture}}{\thepage }}
\newlabel{fig:archi}{{2}{\thepage }}
\citation{Razy}
\@writefile{toc}{\contentsline {subsection}{\numberline {3.1}DApp's Application Functionality}{\thepage }}
\@writefile{lof}{\contentsline {figure}{\numberline {3}{\ignorespaces Tamper Application TX}}{\thepage }}
\newlabel{fig:tamperApplAttack}{{3}{\thepage }}
\@writefile{toc}{\contentsline {subsection}{\numberline {3.2}DApp's Cryptocurrency Functionality}{\thepage }}
\@writefile{lof}{\contentsline {figure}{\numberline {4}{\ignorespaces Forge Application TX}}{\thepage }}
\newlabel{fig:applicationAttack}{{4}{\thepage }}
\@writefile{toc}{\contentsline {subsection}{\numberline {3.3}Implications to DApp Browsers}{\thepage }}
\@writefile{toc}{\contentsline {subsection}{\numberline {3.4}Proof-of-Concept Malware}{\thepage }}
\@writefile{lof}{\contentsline {figure}{\numberline {5}{\ignorespaces Attack Vote Functionality}}{\thepage }}
\newlabel{fig:voteAttack}{{5}{\thepage }}
\citation{tcb2}
\@writefile{toc}{\contentsline {section}{\numberline {4}DAppInvestigator}{\thepage }}
\@writefile{toc}{\contentsline {subsection}{\numberline {4.1}Proposed Technique}{\thepage }}
\@writefile{lof}{\contentsline {figure}{\numberline {6}{\ignorespaces compareEvidence(folderName)}}{\thepage }}
\newlabel{fig:compareEvidence}{{6}{\thepage }}
\@writefile{lof}{\contentsline {figure}{\numberline {7}{\ignorespaces analyzeEvidence(folderName,timestamp)}}{\thepage }}
\newlabel{fig:analyzeEvidence}{{7}{\thepage }}
\@writefile{toc}{\contentsline {subsection}{\numberline {4.2}Implementation}{\thepage }}
\@writefile{toc}{\contentsline {subsubsection}{\numberline {4.2.1}TCB 1: Chrome Extension}{\thepage }}
\@writefile{lof}{\contentsline {figure}{\numberline {8}{\ignorespaces Evidence Acquisition - Full Browser Stack}}{\thepage }}
\newlabel{fig:fulltcb}{{8}{\thepage }}
\citation{JSONRpc}
\@writefile{toc}{\contentsline {subsubsection}{\numberline {4.2.2}TCB 2: DevTools Protocol}{\thepage }}
\@writefile{lof}{\contentsline {figure}{\numberline {9}{\ignorespaces Evidence Acquisition - DevTools Protocol}}{\thepage }}
\newlabel{fig:devtoolstcb}{{9}{\thepage }}
\@writefile{toc}{\contentsline {section}{\numberline {5}Evaluation}{\thepage }}
\@writefile{toc}{\contentsline {subsection}{\numberline {5.1}Effectiveness}{\thepage }}
\@writefile{toc}{\contentsline {subsubsection}{\numberline {5.1.1}Tamper Application Functionality of DApp}{\thepage }}
\@writefile{lot}{\contentsline {table}{\numberline {2}{\ignorespaces Tamper Vote Attack}}{\thepage }}
\newlabel{t:tamperVote}{{2}{\thepage }}
\@writefile{toc}{\contentsline {subsubsection}{\numberline {5.1.2}Forge Application Functionality of DApp }{\thepage }}
\@writefile{lot}{\contentsline {table}{\numberline {3}{\ignorespaces Forge Vote Attack}}{\thepage }}
\newlabel{t:forgeVote}{{3}{\thepage }}
\@writefile{toc}{\contentsline {subsubsection}{\numberline {5.1.3}Tamper Cryptocurrency Functionality of DApp:\\Using Malicious Contract Account}{\thepage }}
\@writefile{toc}{\contentsline {subsubsection}{\numberline {5.1.4}Tamper Cryptocurrency Functionality of DApp:\\Using Externally Owned Account}{\thepage }}
\@writefile{lot}{\contentsline {table}{\numberline {4}{\ignorespaces Tamper Buy Attack}}{\thepage }}
\newlabel{t:tamperBuySC}{{4}{\thepage }}
\@writefile{lot}{\contentsline {table}{\numberline {5}{\ignorespaces Tamper Buy Attack}}{\thepage }}
\newlabel{t:tamperBuyEOA}{{5}{\thepage }}
\@writefile{toc}{\contentsline {subsubsection}{\numberline {5.1.5}Forge Cryptocurrency Functionality of DApp:\\Contract Account and External Account}{\thepage }}
\@writefile{toc}{\contentsline {subsection}{\numberline {5.2}Comparing Implementations}{\thepage }}
\@writefile{toc}{\contentsline {section}{\numberline {6}Conclusions and Future Work}{\thepage }}
\bibstyle{abbrv}
\bibdata{sigproc}
\bibcite{Razy}{1}
\bibcite{ExtensionAnalysis}{2}
\bibcite{tcb2}{3}
\bibcite{JSONRpc}{4}
\bibcite{Signatures}{5}
\bibcite{HDWallets}{6}
\bibcite{Liu12chromeextensions:}{7}
\bibcite{MDNReadyState}{8}
\bibcite{EthereumWeb}{9}
\bibcite{EvotingDApp}{10}
\bibcite{keyStore}{11}
\bibcite{Signatures2}{12}
\@writefile{toc}{\contentsline {section}{\numberline {7}References}{\thepage }}
\@writefile{lof}{\contentsline {figure}{\numberline {10}{\ignorespaces Sample Output}}{\thepage }}
\newlabel{fig:output}{{10}{\thepage }}
