\relax 
\@writefile{toc}{\contentsline {section}{\numberline {1}Introduction}{1}}
\@writefile{toc}{\contentsline {section}{\numberline {2}Interactive console for direct contract communication.}{1}}
\@writefile{toc}{\contentsline {section}{\numberline {3}Javascript Abstraction}{2}}
